module gitlab.servus.at/autoradio/tank

go 1.20

require (
	github.com/codegangsta/cli v1.22.14
	github.com/coreos/go-oidc v2.2.1+incompatible
	github.com/coreos/go-systemd v0.0.0-20191104093116-d3cd4ed1dbcf
	github.com/gin-gonic/gin v1.9.1
	github.com/jinzhu/gorm v1.9.16
	github.com/rs/cors/wrapper/gin v0.0.0-20230802123556-066574eebbd0
	github.com/swaggo/files v1.0.1
	github.com/swaggo/gin-swagger v1.6.0
	github.com/swaggo/swag v1.16.1
	golang.org/x/oauth2 v0.11.0
	gopkg.in/gormigrate.v1 v1.6.0
	gopkg.in/yaml.v3 v3.0.1
)

replace github.com/codegangsta/cli => github.com/urfave/cli v1.22.10

require (
	github.com/KyleBanks/depth v1.2.1 // indirect
	github.com/bytedance/sonic v1.10.0-rc3 // indirect
	github.com/chenzhuoyu/base64x v0.0.0-20230717121745-296ad89f973d // indirect
	github.com/chenzhuoyu/iasm v0.9.0 // indirect
	github.com/cpuguy83/go-md2man/v2 v2.0.2 // indirect
	github.com/gabriel-vasile/mimetype v1.4.2 // indirect
	github.com/ghodss/yaml v1.0.0 // indirect
	github.com/gin-contrib/sse v0.1.0 // indirect
	github.com/go-openapi/jsonpointer v0.20.0 // indirect
	github.com/go-openapi/jsonreference v0.20.2 // indirect
	github.com/go-openapi/spec v0.20.9 // indirect
	github.com/go-openapi/swag v0.22.4 // indirect
	github.com/go-playground/locales v0.14.1 // indirect
	github.com/go-playground/universal-translator v0.18.1 // indirect
	github.com/go-playground/validator/v10 v10.15.0 // indirect
	github.com/go-sql-driver/mysql v1.5.0 // indirect
	github.com/goccy/go-json v0.10.2 // indirect
	github.com/golang/protobuf v1.5.3 // indirect
	github.com/jinzhu/inflection v1.0.0 // indirect
	github.com/josharian/intern v1.0.0 // indirect
	github.com/json-iterator/go v1.1.12 // indirect
	github.com/klauspost/cpuid/v2 v2.2.5 // indirect
	github.com/leodido/go-urn v1.2.4 // indirect
	github.com/lib/pq v1.1.1 // indirect
	github.com/mailru/easyjson v0.7.7 // indirect
	github.com/mattn/go-isatty v0.0.19 // indirect
	github.com/modern-go/concurrent v0.0.0-20180306012644-bacd9c7ef1dd // indirect
	github.com/modern-go/reflect2 v1.0.2 // indirect
	github.com/pelletier/go-toml/v2 v2.0.9 // indirect
	github.com/pquerna/cachecontrol v0.1.0 // indirect
	github.com/rs/cors v1.9.0 // indirect
	github.com/russross/blackfriday/v2 v2.1.0 // indirect
	github.com/shurcooL/httpfs v0.0.0-20190707220628-8d4bc4ba7749 // indirect
	github.com/shurcooL/vfsgen v0.0.0-20200824052919-0d455de96546 // indirect
	github.com/twitchyliquid64/golang-asm v0.15.1 // indirect
	github.com/ugorji/go/codec v1.2.11 // indirect
	github.com/urfave/cli/v2 v2.25.3 // indirect
	github.com/xrash/smetrics v0.0.0-20201216005158-039620a65673 // indirect
	golang.org/x/arch v0.4.0 // indirect
	golang.org/x/crypto v0.12.0 // indirect
	golang.org/x/net v0.14.0 // indirect
	golang.org/x/sys v0.11.0 // indirect
	golang.org/x/text v0.12.0 // indirect
	golang.org/x/tools v0.12.0 // indirect
	google.golang.org/appengine v1.6.7 // indirect
	google.golang.org/protobuf v1.31.0 // indirect
	gopkg.in/square/go-jose.v2 v2.6.0 // indirect
	gopkg.in/yaml.v2 v2.4.0 // indirect
	sigs.k8s.io/yaml v1.3.0 // indirect
)
